<?xml version="1.0" encoding="utf-8" standalone="no"?>
<!DOCTYPE svg PUBLIC "-//W3C//DTD SVG 1.1//EN"
  "http://www.w3.org/Graphics/SVG/1.1/DTD/svg11.dtd">
<!-- Created with matplotlib (https://matplotlib.org/) -->
<svg height="345.6pt" version="1.1" viewBox="0 0 460.8 345.6" width="460.8pt" xmlns="http://www.w3.org/2000/svg" xmlns:xlink="http://www.w3.org/1999/xlink">
 <defs>
  <style type="text/css">
*{stroke-linecap:butt;stroke-linejoin:round;}
  </style>
 </defs>
 <g id="figure_1">
  <g id="patch_1">
   <path d="M 0 345.6 
L 460.8 345.6 
L 460.8 0 
L 0 0 
z
" style="fill:#ffffff;"/>
  </g>
  <g id="axes_1">
   <g id="patch_2">
    <path d="M 57.6 307.584 
L 414.72 307.584 
L 414.72 41.472 
L 57.6 41.472 
z
" style="fill:#ffffff;"/>
   </g>
   <g id="PathCollection_1">
    <defs>
     <path d="M -3 0 
L 3 0 
M 0 3 
L 0 -3 
" id="m1cb4b4874f" style="stroke:#800080;stroke-width:1.5;"/>
    </defs>
    <g clip-path="url(#p3bec6d97fb)">
     <use style="fill:#800080;stroke:#800080;stroke-width:1.5;" x="398.335133" xlink:href="#m1cb4b4874f" y="63.648"/>
     <use style="fill:#800080;stroke:#800080;stroke-width:1.5;" x="390.785077" xlink:href="#m1cb4b4874f" y="63.648001"/>
     <use style="fill:#800080;stroke:#800080;stroke-width:1.5;" x="385.754526" xlink:href="#m1cb4b4874f" y="63.648002"/>
     <use style="fill:#800080;stroke:#800080;stroke-width:1.5;" x="380.723864" xlink:href="#m1cb4b4874f" y="63.648002"/>
     <use style="fill:#800080;stroke:#800080;stroke-width:1.5;" x="375.69366" xlink:href="#m1cb4b4874f" y="63.648002"/>
     <use style="fill:#800080;stroke:#800080;stroke-width:1.5;" x="370.663082" xlink:href="#m1cb4b4874f" y="63.648002"/>
     <use style="fill:#800080;stroke:#800080;stroke-width:1.5;" x="365.631643" xlink:href="#m1cb4b4874f" y="63.648002"/>
     <use style="fill:#800080;stroke:#800080;stroke-width:1.5;" x="360.600103" xlink:href="#m1cb4b4874f" y="63.648002"/>
     <use style="fill:#800080;stroke:#800080;stroke-width:1.5;" x="355.568036" xlink:href="#m1cb4b4874f" y="63.648002"/>
     <use style="fill:#800080;stroke:#800080;stroke-width:1.5;" x="350.536647" xlink:href="#m1cb4b4874f" y="63.648003"/>
     <use style="fill:#800080;stroke:#800080;stroke-width:1.5;" x="345.506717" xlink:href="#m1cb4b4874f" y="63.648002"/>
     <use style="fill:#800080;stroke:#800080;stroke-width:1.5;" x="340.474448" xlink:href="#m1cb4b4874f" y="63.648002"/>
     <use style="fill:#800080;stroke:#800080;stroke-width:1.5;" x="335.443261" xlink:href="#m1cb4b4874f" y="63.648001"/>
     <use style="fill:#800080;stroke:#800080;stroke-width:1.5;" x="330.411344" xlink:href="#m1cb4b4874f" y="63.648003"/>
     <use style="fill:#800080;stroke:#800080;stroke-width:1.5;" x="325.380031" xlink:href="#m1cb4b4874f" y="63.648003"/>
     <use style="fill:#800080;stroke:#800080;stroke-width:1.5;" x="320.349221" xlink:href="#m1cb4b4874f" y="63.648003"/>
     <use style="fill:#800080;stroke:#800080;stroke-width:1.5;" x="315.317405" xlink:href="#m1cb4b4874f" y="63.648001"/>
     <use style="fill:#800080;stroke:#800080;stroke-width:1.5;" x="310.288456" xlink:href="#m1cb4b4874f" y="63.648001"/>
     <use style="fill:#800080;stroke:#800080;stroke-width:1.5;" x="305.256187" xlink:href="#m1cb4b4874f" y="63.648001"/>
     <use style="fill:#800080;stroke:#800080;stroke-width:1.5;" x="300.225855" xlink:href="#m1cb4b4874f" y="63.648003"/>
     <use style="fill:#800080;stroke:#800080;stroke-width:1.5;" x="295.194391" xlink:href="#m1cb4b4874f" y="63.648003"/>
     <use style="fill:#800080;stroke:#800080;stroke-width:1.5;" x="290.162575" xlink:href="#m1cb4b4874f" y="63.648003"/>
     <use style="fill:#800080;stroke:#800080;stroke-width:1.5;" x="285.131463" xlink:href="#m1cb4b4874f" y="63.648001"/>
     <use style="fill:#800080;stroke:#800080;stroke-width:1.5;" x="280.099521" xlink:href="#m1cb4b4874f" y="63.648001"/>
     <use style="fill:#800080;stroke:#800080;stroke-width:1.5;" x="275.069415" xlink:href="#m1cb4b4874f" y="63.648001"/>
     <use style="fill:#800080;stroke:#800080;stroke-width:1.5;" x="270.038404" xlink:href="#m1cb4b4874f" y="63.648003"/>
     <use style="fill:#800080;stroke:#800080;stroke-width:1.5;" x="265.007518" xlink:href="#m1cb4b4874f" y="63.648004"/>
     <use style="fill:#800080;stroke:#800080;stroke-width:1.5;" x="259.976054" xlink:href="#m1cb4b4874f" y="63.648003"/>
     <use style="fill:#800080;stroke:#800080;stroke-width:1.5;" x="254.944615" xlink:href="#m1cb4b4874f" y="63.648001"/>
     <use style="fill:#800080;stroke:#800080;stroke-width:1.5;" x="249.913051" xlink:href="#m1cb4b4874f" y="63.648001"/>
     <use style="fill:#800080;stroke:#800080;stroke-width:1.5;" x="244.881461" xlink:href="#m1cb4b4874f" y="63.648002"/>
     <use style="fill:#800080;stroke:#800080;stroke-width:1.5;" x="239.850978" xlink:href="#m1cb4b4874f" y="63.648004"/>
     <use style="fill:#800080;stroke:#800080;stroke-width:1.5;" x="234.820445" xlink:href="#m1cb4b4874f" y="63.648003"/>
     <use style="fill:#800080;stroke:#800080;stroke-width:1.5;" x="229.788679" xlink:href="#m1cb4b4874f" y="63.648003"/>
     <use style="fill:#800080;stroke:#800080;stroke-width:1.5;" x="224.756435" xlink:href="#m1cb4b4874f" y="63.648002"/>
     <use style="fill:#800080;stroke:#800080;stroke-width:1.5;" x="219.724191" xlink:href="#m1cb4b4874f" y="63.648002"/>
     <use style="fill:#800080;stroke:#800080;stroke-width:1.5;" x="214.693783" xlink:href="#m1cb4b4874f" y="63.648002"/>
     <use style="fill:#800080;stroke:#800080;stroke-width:1.5;" x="209.663527" xlink:href="#m1cb4b4874f" y="63.648003"/>
     <use style="fill:#800080;stroke:#800080;stroke-width:1.5;" x="204.631736" xlink:href="#m1cb4b4874f" y="63.648003"/>
     <use style="fill:#800080;stroke:#800080;stroke-width:1.5;" x="199.601554" xlink:href="#m1cb4b4874f" y="63.648003"/>
     <use style="fill:#800080;stroke:#800080;stroke-width:1.5;" x="194.569789" xlink:href="#m1cb4b4874f" y="63.648003"/>
     <use style="fill:#800080;stroke:#800080;stroke-width:1.5;" x="189.537972" xlink:href="#m1cb4b4874f" y="63.648003"/>
     <use style="fill:#800080;stroke:#800080;stroke-width:1.5;" x="184.507037" xlink:href="#m1cb4b4874f" y="63.648003"/>
     <use style="fill:#800080;stroke:#800080;stroke-width:1.5;" x="179.475371" xlink:href="#m1cb4b4874f" y="63.648002"/>
     <use style="fill:#800080;stroke:#800080;stroke-width:1.5;" x="174.444939" xlink:href="#m1cb4b4874f" y="63.648002"/>
     <use style="fill:#800080;stroke:#800080;stroke-width:1.5;" x="169.412896" xlink:href="#m1cb4b4874f" y="63.648002"/>
     <use style="fill:#800080;stroke:#800080;stroke-width:1.5;" x="164.381759" xlink:href="#m1cb4b4874f" y="63.648004"/>
     <use style="fill:#800080;stroke:#800080;stroke-width:1.5;" x="159.35027" xlink:href="#m1cb4b4874f" y="63.648004"/>
     <use style="fill:#800080;stroke:#800080;stroke-width:1.5;" x="154.318202" xlink:href="#m1cb4b4874f" y="63.648004"/>
     <use style="fill:#800080;stroke:#800080;stroke-width:1.5;" x="149.287518" xlink:href="#m1cb4b4874f" y="63.648002"/>
     <use style="fill:#800080;stroke:#800080;stroke-width:1.5;" x="144.25628" xlink:href="#m1cb4b4874f" y="63.648002"/>
     <use style="fill:#800080;stroke:#800080;stroke-width:1.5;" x="139.225772" xlink:href="#m1cb4b4874f" y="63.648002"/>
     <use style="fill:#800080;stroke:#800080;stroke-width:1.5;" x="134.194257" xlink:href="#m1cb4b4874f" y="63.648004"/>
     <use style="fill:#800080;stroke:#800080;stroke-width:1.5;" x="129.163246" xlink:href="#m1cb4b4874f" y="63.648004"/>
     <use style="fill:#800080;stroke:#800080;stroke-width:1.5;" x="124.132486" xlink:href="#m1cb4b4874f" y="63.648003"/>
     <use style="fill:#800080;stroke:#800080;stroke-width:1.5;" x="119.101727" xlink:href="#m1cb4b4874f" y="63.648003"/>
     <use style="fill:#800080;stroke:#800080;stroke-width:1.5;" x="114.071973" xlink:href="#m1cb4b4874f" y="63.648003"/>
     <use style="fill:#800080;stroke:#800080;stroke-width:1.5;" x="109.041968" xlink:href="#m1cb4b4874f" y="63.648005"/>
     <use style="fill:#800080;stroke:#800080;stroke-width:1.5;" x="104.013221" xlink:href="#m1cb4b4874f" y="63.648005"/>
     <use style="fill:#800080;stroke:#800080;stroke-width:1.5;" x="98.983718" xlink:href="#m1cb4b4874f" y="63.648005"/>
     <use style="fill:#800080;stroke:#800080;stroke-width:1.5;" x="93.95321" xlink:href="#m1cb4b4874f" y="63.648005"/>
     <use style="fill:#800080;stroke:#800080;stroke-width:1.5;" x="88.923205" xlink:href="#m1cb4b4874f" y="63.648007"/>
     <use style="fill:#800080;stroke:#800080;stroke-width:1.5;" x="83.890685" xlink:href="#m1cb4b4874f" y="63.64801"/>
     <use style="fill:#800080;stroke:#800080;stroke-width:1.5;" x="78.860428" xlink:href="#m1cb4b4874f" y="63.648101"/>
     <use style="fill:#800080;stroke:#800080;stroke-width:1.5;" x="75.229729" xlink:href="#m1cb4b4874f" y="285.407579"/>
     <use style="fill:#800080;stroke:#800080;stroke-width:1.5;" x="74.894177" xlink:href="#m1cb4b4874f" y="285.407867"/>
     <use style="fill:#800080;stroke:#800080;stroke-width:1.5;" x="74.669805" xlink:href="#m1cb4b4874f" y="285.408"/>
     <use style="fill:#800080;stroke:#800080;stroke-width:1.5;" x="74.489201" xlink:href="#m1cb4b4874f" y="285.408"/>
     <use style="fill:#800080;stroke:#800080;stroke-width:1.5;" x="74.321173" xlink:href="#m1cb4b4874f" y="285.407845"/>
     <use style="fill:#800080;stroke:#800080;stroke-width:1.5;" x="74.149373" xlink:href="#m1cb4b4874f" y="285.407978"/>
     <use style="fill:#800080;stroke:#800080;stroke-width:1.5;" x="73.984867" xlink:href="#m1cb4b4874f" y="285.407911"/>
    </g>
   </g>
   <g id="matplotlib.axis_1">
    <g id="xtick_1">
     <g id="line2d_1">
      <defs>
       <path d="M 0 0 
L 0 3.5 
" id="ma0b68625cc" style="stroke:#000000;stroke-width:0.8;"/>
      </defs>
      <g>
       <use style="stroke:#000000;stroke-width:0.8;" x="93.973836" xlink:href="#ma0b68625cc" y="307.584"/>
      </g>
     </g>
     <g id="text_1">
      <!-- $-12$ -->
      <defs>
       <path d="M 65.90625 23 
C 67.59375 23 69.40625 23 69.40625 25 
C 69.40625 27 67.59375 27 65.90625 27 
L 11.796875 27 
C 10.09375 27 8.296875 27 8.296875 25 
C 8.296875 23 10.09375 23 11.796875 23 
z
" id="CMSY10-0"/>
       <path d="M 26.59375 63.40625 
C 26.59375 65.5 26.5 65.5 25.09375 65.5 
C 21.203125 61.1875 15.296875 59.796875 9.703125 59.796875 
C 9.40625 59.796875 8.90625 59.796875 8.796875 59.5 
C 8.703125 59.296875 8.703125 59.09375 8.703125 57 
C 11.796875 57 17 57.59375 21 59.984375 
L 21 7.203125 
C 21 3.6875 20.796875 2.5 12.203125 2.5 
L 9.203125 2.5 
L 9.203125 0 
C 14 0 19 0 23.796875 0 
C 28.59375 0 33.59375 0 38.40625 0 
L 38.40625 2.5 
L 35.40625 2.5 
C 26.796875 2.5 26.59375 3.59375 26.59375 7.15625 
z
" id="CMR17-49"/>
       <path d="M 41.703125 15.453125 
L 39.90625 15.453125 
C 38.90625 8.375 38.09375 7.171875 37.703125 6.5625 
C 37.203125 5.765625 30 5.765625 28.59375 5.765625 
L 9.40625 5.765625 
C 13 9.671875 20 16.75 28.5 24.953125 
C 34.59375 30.734375 41.703125 37.53125 41.703125 47.421875 
C 41.703125 59.21875 32.296875 66 21.796875 66 
C 10.796875 66 4.09375 56.3125 4.09375 47.34375 
C 4.09375 43.4375 7 42.9375 8.203125 42.9375 
C 9.203125 42.9375 12.203125 43.546875 12.203125 47.03125 
C 12.203125 50.109375 9.59375 51 8.203125 51 
C 7.59375 51 7 50.90625 6.59375 50.703125 
C 8.5 59.21875 14.296875 63.40625 20.40625 63.40625 
C 29.09375 63.40625 34.796875 56.515625 34.796875 47.421875 
C 34.796875 38.734375 29.703125 31.25 24 24.75 
L 4.09375 2.28125 
L 4.09375 0 
L 39.296875 0 
z
" id="CMR17-50"/>
      </defs>
      <g transform="translate(83.471601 322.817772)scale(0.12 -0.12)">
       <use transform="scale(0.996264)" xlink:href="#CMSY10-0"/>
       <use transform="translate(77.487468 0)scale(0.996264)" xlink:href="#CMR17-49"/>
       <use transform="translate(123.177945 0)scale(0.996264)" xlink:href="#CMR17-50"/>
      </g>
     </g>
    </g>
    <g id="xtick_2">
     <g id="line2d_2">
      <g>
       <use style="stroke:#000000;stroke-width:0.8;" x="144.281434" xlink:href="#ma0b68625cc" y="307.584"/>
      </g>
     </g>
     <g id="text_2">
      <!-- $-10$ -->
      <defs>
       <path d="M 42 31.640625 
C 42 37.75 41.90625 48.125 37.703125 56.109375 
C 34 63.109375 28.09375 65.59375 22.90625 65.59375 
C 18.09375 65.59375 12 63.40625 8.203125 56.203125 
C 4.203125 48.71875 3.796875 39.4375 3.796875 31.640625 
C 3.796875 25.953125 3.90625 17.28125 7 9.671875 
C 11.296875 -0.609375 19 -2 22.90625 -2 
C 27.5 -2 34.5 -0.109375 38.59375 9.375 
C 41.59375 16.28125 42 24.359375 42 31.640625 
z
M 22.90625 -0.40625 
C 16.5 -0.40625 12.703125 5.078125 11.296875 12.6875 
C 10.203125 18.5625 10.203125 27.15625 10.203125 32.75 
C 10.203125 40.4375 10.203125 46.828125 11.5 52.921875 
C 13.40625 61.390625 19 64 22.90625 64 
C 27 64 32.296875 61.296875 34.203125 53.125 
C 35.5 47.4375 35.59375 40.734375 35.59375 32.75 
C 35.59375 26.25 35.59375 18.265625 34.40625 12.375 
C 32.296875 1.484375 26.40625 -0.40625 22.90625 -0.40625 
z
" id="CMR17-48"/>
      </defs>
      <g transform="translate(133.779199 322.817772)scale(0.12 -0.12)">
       <use transform="scale(0.996264)" xlink:href="#CMSY10-0"/>
       <use transform="translate(77.487468 0)scale(0.996264)" xlink:href="#CMR17-49"/>
       <use transform="translate(123.177945 0)scale(0.996264)" xlink:href="#CMR17-48"/>
      </g>
     </g>
    </g>
    <g id="xtick_3">
     <g id="line2d_3">
      <g>
       <use style="stroke:#000000;stroke-width:0.8;" x="194.589031" xlink:href="#ma0b68625cc" y="307.584"/>
      </g>
     </g>
     <g id="text_3">
      <!-- $-8$ -->
      <defs>
       <path d="M 27.203125 35.375 
C 33.5 38.546875 39.90625 43.328125 39.90625 50.984375 
C 39.90625 60.015625 31.09375 65.296875 23 65.296875 
C 13.90625 65.296875 5.90625 58.734375 5.90625 49.6875 
C 5.90625 47.203125 6.5 42.921875 10.40625 39.140625 
C 11.40625 38.15625 15.59375 35.171875 18.296875 33.28125 
C 13.796875 30.984375 3.296875 25.53125 3.296875 14.59375 
C 3.296875 4.359375 13.09375 -2 22.796875 -2 
C 33.5 -2 42.5 5.65625 42.5 15.78125 
C 42.5 24.84375 36.40625 29.015625 32.40625 31.703125 
z
M 14.09375 44.09375 
C 13.296875 44.59375 9.296875 47.671875 9.296875 52.359375 
C 9.296875 58.421875 15.59375 63 22.796875 63 
C 30.703125 63 36.5 57.4375 36.5 50.96875 
C 36.5 41.703125 26.09375 36.421875 25.59375 36.421875 
C 25.5 36.421875 25.40625 36.421875 24.59375 37.03125 
z
M 32.5 23.734375 
C 34 22.640625 38.796875 19.375 38.796875 13.296875 
C 38.796875 5.953125 31.40625 0.390625 23 0.390625 
C 13.90625 0.390625 7 6.84375 7 14.6875 
C 7 22.546875 13.09375 29.09375 20 32.1875 
z
" id="CMR17-56"/>
      </defs>
      <g transform="translate(187.013291 322.817772)scale(0.12 -0.12)">
       <use transform="scale(0.996264)" xlink:href="#CMSY10-0"/>
       <use transform="translate(77.487468 0)scale(0.996264)" xlink:href="#CMR17-56"/>
      </g>
     </g>
    </g>
    <g id="xtick_4">
     <g id="line2d_4">
      <g>
       <use style="stroke:#000000;stroke-width:0.8;" x="244.896629" xlink:href="#ma0b68625cc" y="307.584"/>
      </g>
     </g>
     <g id="text_4">
      <!-- $-6$ -->
      <defs>
       <path d="M 10.59375 34 
C 10.59375 57.65625 21.796875 63 28.296875 63 
C 30.40625 63 35.5 62.640625 37.5 59 
C 35.90625 59 32.90625 59 32.90625 55.515625 
C 32.90625 52.828125 35.09375 51.921875 36.5 51.921875 
C 37.40625 51.921875 40.09375 52.3125 40.09375 55.625 
C 40.09375 61.78125 35.09375 65.296875 28.203125 65.296875 
C 16.296875 65.296875 3.796875 52.96875 3.796875 31 
C 3.796875 3.953125 15.09375 -2 23.09375 -2 
C 32.796875 -2 42 6.671875 42 20.046875 
C 42 32.515625 33.90625 41.59375 23.703125 41.59375 
C 17.59375 41.59375 13.09375 37.609375 10.59375 30.625 
z
M 23.09375 0.390625 
C 10.796875 0.390625 10.796875 18.75 10.796875 22.4375 
C 10.796875 29.625 14.203125 40 23.5 40 
C 25.203125 40 30.09375 40 33.40625 33.125 
C 35.203125 29.21875 35.203125 25.140625 35.203125 20.140625 
C 35.203125 14.75 35.203125 10.78125 33.09375 6.78125 
C 30.90625 2.671875 27.703125 0.390625 23.09375 0.390625 
z
" id="CMR17-54"/>
      </defs>
      <g transform="translate(237.320889 322.817772)scale(0.12 -0.12)">
       <use transform="scale(0.996264)" xlink:href="#CMSY10-0"/>
       <use transform="translate(77.487468 0)scale(0.996264)" xlink:href="#CMR17-54"/>
      </g>
     </g>
    </g>
    <g id="xtick_5">
     <g id="line2d_5">
      <g>
       <use style="stroke:#000000;stroke-width:0.8;" x="295.204226" xlink:href="#ma0b68625cc" y="307.584"/>
      </g>
     </g>
     <g id="text_5">
      <!-- $-4$ -->
      <defs>
       <path d="M 33.59375 64.40625 
C 33.59375 66.5 33.5 66.5 31.703125 66.5 
L 2 19.59375 
L 2 17 
L 27.796875 17 
L 27.796875 7.140625 
C 27.796875 3.5 27.59375 2.5 20.59375 2.5 
L 18.703125 2.5 
L 18.703125 0 
C 21.90625 0 27.296875 0 30.703125 0 
C 34.09375 0 39.5 0 42.703125 0 
L 42.703125 2.5 
L 40.796875 2.5 
C 33.796875 2.5 33.59375 3.5 33.59375 7.140625 
L 33.59375 17 
L 43.796875 17 
L 43.796875 19.59375 
L 33.59375 19.59375 
z
M 28.09375 57.859375 
L 28.09375 19.59375 
L 4 19.59375 
z
" id="CMR17-52"/>
      </defs>
      <g transform="translate(287.628486 322.817772)scale(0.12 -0.12)">
       <use transform="scale(0.996264)" xlink:href="#CMSY10-0"/>
       <use transform="translate(77.487468 0)scale(0.996264)" xlink:href="#CMR17-52"/>
      </g>
     </g>
    </g>
    <g id="xtick_6">
     <g id="line2d_6">
      <g>
       <use style="stroke:#000000;stroke-width:0.8;" x="345.511823" xlink:href="#ma0b68625cc" y="307.584"/>
      </g>
     </g>
     <g id="text_6">
      <!-- $-2$ -->
      <g transform="translate(337.936084 322.817772)scale(0.12 -0.12)">
       <use transform="scale(0.996264)" xlink:href="#CMSY10-0"/>
       <use transform="translate(77.487468 0)scale(0.996264)" xlink:href="#CMR17-50"/>
      </g>
     </g>
    </g>
    <g id="xtick_7">
     <g id="line2d_7">
      <g>
       <use style="stroke:#000000;stroke-width:0.8;" x="395.819421" xlink:href="#ma0b68625cc" y="307.584"/>
      </g>
     </g>
     <g id="text_7">
      <!-- $0$ -->
      <g transform="translate(392.892926 322.817772)scale(0.12 -0.12)">
       <use transform="scale(0.996264)" xlink:href="#CMR17-48"/>
      </g>
     </g>
    </g>
    <g id="text_8">
     <!-- Spenna [V] -->
     <defs>
      <path d="M 8.796875 8.40625 
C 10.203125 7 11.203125 5.3125 12.796875 4.109375 
C 16.703125 1 21.796875 -1 26.703125 -1 
C 37.40625 -1 44.703125 8.234375 44.703125 18.203125 
C 44.703125 25.546875 40.703125 32.703125 33.90625 35.8125 
C 32.296875 36.515625 30.59375 36.8125 29 37.3125 
L 22.40625 39.125 
C 19.59375 39.921875 16.703125 40.546875 14.296875 42.34375 
C 10.59375 45.0625 8.59375 49.390625 8.59375 53.828125 
C 8.59375 61.875 15.203125 67.90625 23 67.90625 
C 33.40625 67.90625 39.40625 58.640625 40.59375 48.671875 
C 40.703125 48.078125 40.59375 46.15625 41.5 46.15625 
L 41.796875 46.15625 
C 42.203125 46.265625 42.203125 46.5625 42.203125 46.953125 
L 42.203125 69.203125 
C 42.203125 69.5 42.203125 69.796875 41.90625 69.90625 
L 41.796875 69.90625 
C 41.203125 69.90625 39.09375 63.875 38.296875 60.75 
C 35 66.390625 29.59375 70 22.90625 70 
C 14.40625 70 5 63.875 5 52.40625 
C 5 45.15625 9.40625 38.40625 16.296875 35.796875 
C 17.796875 35.203125 19.40625 34.890625 21 34.5 
L 27.703125 32.578125 
C 29.296875 32.1875 30.90625 31.78125 32.40625 31.1875 
C 37.796875 28.859375 41.203125 22.828125 41.203125 16.984375 
L 41.203125 15.78125 
C 40.59375 8.4375 35.5 1.296875 26.90625 1.296875 
C 16.203125 1.296875 6.296875 8.9375 6.296875 21.71875 
C 6.296875 22.21875 6.296875 23.015625 5.703125 23.015625 
C 5.09375 23.015625 5 22.625 5 22.109375 
L 5 0.09375 
C 5 -0.234375 5.09375 -0.5 5.40625 -0.5 
C 6.296875 -0.5 8.796875 8.40625 8.796875 8.40625 
z
" id="Computer_Modern_Roman-83"/>
      <path d="M 4.5 42.96875 
L 4.5 40.75 
L 5.796875 40.75 
C 9 40.75 10.40625 39.4375 10.40625 36.34375 
L 10.40625 -11.421875 
C 10.40625 -12.109375 10.5 -12.78125 10.5 -13.46875 
C 10.5 -16.59375 8 -16.796875 5.40625 -16.796875 
L 4.5 -16.796875 
L 4.5 -19 
L 20.40625 -19 
L 20.40625 -16.796875 
L 19 -16.796875 
C 16.703125 -16.796875 14.5 -16.5 14.5 -13.34375 
L 14.59375 7.359375 
C 16.703125 2.109375 22.796875 -0.5 27 -0.5 
C 38.09375 -0.5 45.5 10.796875 45.5 21.875 
C 45.5 31.75 39.59375 44.046875 28.09375 44.046875 
C 22.703125 44.046875 16.40625 40.625 14.5 35.90625 
L 14.40625 44.046875 
z
M 40.296875 19.96875 
C 39.796875 12.1875 35.59375 0.703125 26.703125 0.703125 
C 21.40625 0.703125 14.40625 5.453125 14.40625 11.703125 
C 14.40625 12.3125 14.5 12.921875 14.5 13.53125 
L 14.5 28.453125 
C 14.5 29.453125 14.40625 30.46875 14.40625 31.46875 
C 14.40625 37.109375 21.203125 42.765625 27.09375 42.765625 
C 36.703125 42.765625 40.40625 29.65625 40.40625 21.78125 
C 40.40625 21.171875 40.40625 20.578125 40.296875 19.96875 
z
" id="Computer_Modern_Roman-112"/>
      <path d="M 8.796875 23.8125 
L 35.09375 23.8125 
C 35.296875 23.8125 35.703125 23.703125 36.09375 23.703125 
C 36.796875 23.703125 37.09375 24.109375 37.09375 24.703125 
C 37.09375 33.65625 32.796875 44 21.59375 44 
C 9.59375 44 3.703125 31.734375 3.703125 21.953125 
C 3.703125 12.15625 9.203125 1.09375 21.09375 -0.40625 
C 21.5 -0.40625 21.90625 -0.5 22.296875 -0.5 
C 29.203125 -0.5 34.5 4.265625 36.796875 10.71875 
C 36.90625 11.015625 37 11.40625 37 11.703125 
C 37 12 36.90625 12.296875 36.5 12.296875 
C 35.5 12.296875 35.40625 10.71875 35.09375 9.8125 
C 33.09375 5.0625 28.796875 0.890625 23.203125 0.890625 
C 19 0.890625 15 3.28125 12.703125 6.640625 
C 9 11.59375 8.796875 17.953125 8.796875 23.8125 
z
M 8.90625 25 
C 9.09375 32.859375 13 42.8125 21.40625 42.8125 
C 28.40625 42.8125 31.40625 35.375 32.203125 29.53125 
C 32.296875 28.015625 32.296875 26.515625 32.5 25 
z
" id="Computer_Modern_Roman-101"/>
      <path d="M 4.703125 42.90625 
L 4.703125 40.703125 
L 5.703125 40.703125 
C 8.90625 40.703125 10.59375 40 10.59375 35.546875 
L 10.59375 5.640625 
C 10.59375 2.40625 8.203125 2.203125 4.703125 2.203125 
L 4.703125 0 
L 20.59375 0 
L 20.59375 2.203125 
L 19.203125 2.203125 
C 16.90625 2.203125 14.703125 2.5 14.703125 5.640625 
L 14.703125 27.765625 
C 15.296875 34.640625 18.796875 42.8125 26.703125 42.8125 
C 33 42.8125 35.40625 37.765625 35.40625 30.484375 
L 35.40625 5.640625 
C 35.40625 2.40625 33 2.203125 29.5 2.203125 
L 29.5 0 
L 45.40625 0 
L 45.40625 2.203125 
L 43.796875 2.203125 
C 41.5 2.203125 39.5 2.5 39.5 6.03125 
L 39.5 29.453125 
C 39.5 35.921875 38.296875 44 27.5 44 
C 22.09375 44 18.40625 41.078125 16 36.75 
C 15.40625 35.640625 14.796875 34.4375 14.59375 33.21875 
L 14.5 44 
z
" id="Computer_Modern_Roman-110"/>
      <path d="M 9 32.5 
C 10.296875 37.703125 13.796875 42.8125 19.90625 42.8125 
C 25.296875 42.8125 29.203125 37.734375 30 32.828125 
C 30.203125 31.53125 30.203125 30.125 30.203125 28.84375 
L 30.203125 24.953125 
C 20.59375 24.953125 7.40625 22.75 5 10.71875 
C 4.90625 10.109375 4.90625 9.421875 4.90625 8.8125 
C 4.90625 2.09375 12.5 -0.5 17.703125 -0.5 
C 22.59375 -0.5 29 2.765625 30.296875 8.359375 
L 30.40625 8.359375 
C 30.40625 4.1875 33.203125 0 37.40625 0 
C 42.90625 0 44.203125 5.875 44.203125 10.15625 
L 44.203125 14.625 
L 42.90625 14.625 
L 42.90625 9.5625 
C 42.90625 6.375 42.203125 1.796875 38.59375 1.796875 
C 34.5 1.796875 34.296875 7.078125 34.296875 9.765625 
L 34.296875 28.28125 
C 34.296875 30.765625 34.203125 33.34375 33.203125 35.75 
C 31.09375 40.609375 25.59375 44 20.203125 44 
C 12.5 44 7.5 37.28125 7.5 29.96875 
C 7.5 28.09375 8.90625 27 10.5 27 
C 12.09375 27 13.40625 28.296875 13.40625 29.90625 
C 13.40625 31.40625 12.40625 32.796875 10.5 32.796875 
C 10 32.796875 9.5 32.703125 9 32.5 
z
M 30.203125 23.859375 
L 30.203125 14.03125 
C 30.203125 7.421875 26.09375 1.203125 19.203125 0.703125 
L 18.59375 0.703125 
C 14 0.703125 9.796875 4.3125 9.796875 9.21875 
C 9.796875 19.640625 21.296875 23.859375 30.203125 23.859375 
z
" id="Computer_Modern_Roman-97"/>
      <path d="M 10.296875 74 
L 10.296875 -25.1875 
L 22.90625 -25.1875 
L 22.90625 -23.984375 
L 14.296875 -23.984375 
L 14.296875 72.8125 
L 22.90625 72.8125 
L 22.90625 74 
z
" id="Computer_Modern_Roman-91"/>
      <path d="M 1.40625 68.203125 
L 1.40625 66 
L 2.90625 66 
C 6.90625 66 7.5 64 8.59375 61.609375 
L 11.59375 53.828125 
C 16.5 40.96875 21.5 28.203125 26.5 15.359375 
L 31.296875 2.78125 
C 31.90625 1.40625 32.296875 -1 33.59375 -1 
C 34.703125 -1 35.296875 1.5 35.703125 2.6875 
L 40.5 14.953125 
C 45.5 28 50.59375 41.078125 55.59375 54.125 
L 57.09375 57.921875 
C 58.59375 61.71875 60.40625 66 65.703125 66 
L 65.703125 68.203125 
L 53.09375 68.203125 
L 53.09375 66 
C 55.296875 65.796875 56.796875 64.09375 56.796875 62.015625 
L 56.796875 61.609375 
C 56.296875 58.234375 54.203125 54.53125 53 51.34375 
C 47.296875 35.984375 41.296875 20.9375 35.40625 5.78125 
C 33.09375 10.46875 31.5 15.75 29.59375 20.640625 
C 25.59375 30.90625 21.703125 41.28125 17.703125 51.546875 
C 16.5 54.53125 15.296875 57.625 14.203125 60.609375 
C 13.796875 61.515625 13.203125 62.609375 13.203125 63.609375 
C 13.203125 66 16.203125 66 17.703125 66 
L 17.703125 68.203125 
z
" id="Computer_Modern_Roman-86"/>
      <path d="M 1.90625 74 
L 1.90625 72.8125 
L 10.5 72.8125 
L 10.5 -23.984375 
L 1.90625 -23.984375 
L 1.90625 -25.1875 
L 14.5 -25.1875 
L 14.5 74 
z
" id="Computer_Modern_Roman-93"/>
     </defs>
     <g transform="translate(207.87925 338.106007)scale(0.12 -0.12)">
      <use transform="scale(0.356961)" xlink:href="#Computer_Modern_Roman-83"/>
      <use transform="translate(17.749616 0)scale(0.356961)" xlink:href="#Computer_Modern_Roman-112"/>
      <use transform="translate(36.387807 0)scale(0.356961)" xlink:href="#Computer_Modern_Roman-101"/>
      <use transform="translate(50.58308 0)scale(0.356961)" xlink:href="#Computer_Modern_Roman-110"/>
      <use transform="translate(68.332696 0)scale(0.356961)" xlink:href="#Computer_Modern_Roman-110"/>
      <use transform="translate(86.082312 0)scale(0.356961)" xlink:href="#Computer_Modern_Roman-97"/>
      <use transform="translate(112.695662 0)scale(0.356961)" xlink:href="#Computer_Modern_Roman-91"/>
      <use transform="translate(121.559396 0)scale(0.356961)" xlink:href="#Computer_Modern_Roman-86"/>
      <use transform="translate(145.508527 0)scale(0.356961)" xlink:href="#Computer_Modern_Roman-93"/>
     </g>
    </g>
   </g>
   <g id="matplotlib.axis_2">
    <g id="ytick_1">
     <g id="line2d_8">
      <defs>
       <path d="M 0 0 
L -3.5 0 
" id="mb372a7203e" style="stroke:#000000;stroke-width:0.8;"/>
      </defs>
      <g>
       <use style="stroke:#000000;stroke-width:0.8;" x="57.6" xlink:href="#mb372a7203e" y="285.413766"/>
      </g>
     </g>
     <g id="text_9">
      <!-- $-0.010$ -->
      <defs>
       <path d="M 18.40625 4.796875 
C 18.40625 7.6875 16 9.671875 13.59375 9.671875 
C 10.703125 9.671875 8.703125 7.28125 8.703125 4.890625 
C 8.703125 2 11.09375 0 13.5 0 
C 16.40625 0 18.40625 2.390625 18.40625 4.796875 
z
" id="CMMI12-58"/>
      </defs>
      <g transform="translate(14.637888 289.530652)scale(0.12 -0.12)">
       <use transform="scale(0.996264)" xlink:href="#CMSY10-0"/>
       <use transform="translate(77.487468 0)scale(0.996264)" xlink:href="#CMR17-48"/>
       <use transform="translate(123.177945 0)scale(0.996264)" xlink:href="#CMMI12-58"/>
       <use transform="translate(150.275122 0)scale(0.996264)" xlink:href="#CMR17-48"/>
       <use transform="translate(195.965599 0)scale(0.996264)" xlink:href="#CMR17-49"/>
       <use transform="translate(241.656076 0)scale(0.996264)" xlink:href="#CMR17-48"/>
      </g>
     </g>
    </g>
    <g id="ytick_2">
     <g id="line2d_9">
      <g>
       <use style="stroke:#000000;stroke-width:0.8;" x="57.6" xlink:href="#mb372a7203e" y="241.060613"/>
      </g>
     </g>
     <g id="text_10">
      <!-- $-0.008$ -->
      <g transform="translate(14.637888 245.177499)scale(0.12 -0.12)">
       <use transform="scale(0.996264)" xlink:href="#CMSY10-0"/>
       <use transform="translate(77.487468 0)scale(0.996264)" xlink:href="#CMR17-48"/>
       <use transform="translate(123.177945 0)scale(0.996264)" xlink:href="#CMMI12-58"/>
       <use transform="translate(150.275122 0)scale(0.996264)" xlink:href="#CMR17-48"/>
       <use transform="translate(195.965599 0)scale(0.996264)" xlink:href="#CMR17-48"/>
       <use transform="translate(241.656076 0)scale(0.996264)" xlink:href="#CMR17-56"/>
      </g>
     </g>
    </g>
    <g id="ytick_3">
     <g id="line2d_10">
      <g>
       <use style="stroke:#000000;stroke-width:0.8;" x="57.6" xlink:href="#mb372a7203e" y="196.70746"/>
      </g>
     </g>
     <g id="text_11">
      <!-- $-0.006$ -->
      <g transform="translate(14.637888 200.824346)scale(0.12 -0.12)">
       <use transform="scale(0.996264)" xlink:href="#CMSY10-0"/>
       <use transform="translate(77.487468 0)scale(0.996264)" xlink:href="#CMR17-48"/>
       <use transform="translate(123.177945 0)scale(0.996264)" xlink:href="#CMMI12-58"/>
       <use transform="translate(150.275122 0)scale(0.996264)" xlink:href="#CMR17-48"/>
       <use transform="translate(195.965599 0)scale(0.996264)" xlink:href="#CMR17-48"/>
       <use transform="translate(241.656076 0)scale(0.996264)" xlink:href="#CMR17-54"/>
      </g>
     </g>
    </g>
    <g id="ytick_4">
     <g id="line2d_11">
      <g>
       <use style="stroke:#000000;stroke-width:0.8;" x="57.6" xlink:href="#mb372a7203e" y="152.354308"/>
      </g>
     </g>
     <g id="text_12">
      <!-- $-0.004$ -->
      <g transform="translate(14.637888 156.471194)scale(0.12 -0.12)">
       <use transform="scale(0.996264)" xlink:href="#CMSY10-0"/>
       <use transform="translate(77.487468 0)scale(0.996264)" xlink:href="#CMR17-48"/>
       <use transform="translate(123.177945 0)scale(0.996264)" xlink:href="#CMMI12-58"/>
       <use transform="translate(150.275122 0)scale(0.996264)" xlink:href="#CMR17-48"/>
       <use transform="translate(195.965599 0)scale(0.996264)" xlink:href="#CMR17-48"/>
       <use transform="translate(241.656076 0)scale(0.996264)" xlink:href="#CMR17-52"/>
      </g>
     </g>
    </g>
    <g id="ytick_5">
     <g id="line2d_12">
      <g>
       <use style="stroke:#000000;stroke-width:0.8;" x="57.6" xlink:href="#mb372a7203e" y="108.001155"/>
      </g>
     </g>
     <g id="text_13">
      <!-- $-0.002$ -->
      <g transform="translate(14.637888 112.118041)scale(0.12 -0.12)">
       <use transform="scale(0.996264)" xlink:href="#CMSY10-0"/>
       <use transform="translate(77.487468 0)scale(0.996264)" xlink:href="#CMR17-48"/>
       <use transform="translate(123.177945 0)scale(0.996264)" xlink:href="#CMMI12-58"/>
       <use transform="translate(150.275122 0)scale(0.996264)" xlink:href="#CMR17-48"/>
       <use transform="translate(195.965599 0)scale(0.996264)" xlink:href="#CMR17-48"/>
       <use transform="translate(241.656076 0)scale(0.996264)" xlink:href="#CMR17-50"/>
      </g>
     </g>
    </g>
    <g id="ytick_6">
     <g id="line2d_13">
      <g>
       <use style="stroke:#000000;stroke-width:0.8;" x="57.6" xlink:href="#mb372a7203e" y="63.648002"/>
      </g>
     </g>
     <g id="text_14">
      <!-- $0.000$ -->
      <g transform="translate(23.936378 67.764888)scale(0.12 -0.12)">
       <use transform="scale(0.996264)" xlink:href="#CMR17-48"/>
       <use transform="translate(45.690477 0)scale(0.996264)" xlink:href="#CMMI12-58"/>
       <use transform="translate(72.787654 0)scale(0.996264)" xlink:href="#CMR17-48"/>
       <use transform="translate(118.478131 0)scale(0.996264)" xlink:href="#CMR17-48"/>
       <use transform="translate(164.168608 0)scale(0.996264)" xlink:href="#CMR17-48"/>
      </g>
     </g>
    </g>
    <g id="text_15">
     <!-- Straumur [A] -->
     <defs>
      <path d="M 13.203125 61.5 
C 13.203125 55.8125 11.90625 42 1.703125 42 
L 1.703125 40.8125 
L 10.40625 40.8125 
L 10.40625 17.75 
C 10.40625 16.375 10.296875 14.765625 10.296875 13.265625 
C 10.296875 7.078125 12.296875 -0.5 20.59375 -0.5 
C 28.296875 -0.5 29.796875 7.984375 29.796875 14.171875 
L 29.796875 18.046875 
L 28.5 18.046875 
C 28.5 16.546875 28.59375 15.0625 28.59375 13.46875 
C 28.59375 8.984375 27.703125 0.796875 21.5 0.796875 
C 15.703125 0.796875 14.40625 7.890625 14.40625 13.265625 
C 14.40625 14.96875 14.5 16.5625 14.5 18.25 
L 14.5 40.8125 
L 28.296875 40.8125 
L 28.296875 43 
L 14.5 43 
L 14.5 61.5 
z
" id="Computer_Modern_Roman-116"/>
      <path d="M 4.5 42.90625 
L 4.5 40.703125 
L 5.5 40.703125 
C 8.703125 40.703125 10.40625 40 10.40625 35.546875 
L 10.40625 5.640625 
C 10.40625 2.40625 8 2.203125 4.5 2.203125 
L 4.5 0 
L 21.703125 0 
L 21.703125 2.203125 
L 19.703125 2.203125 
C 16.796875 2.203125 14.40625 2.5 14.40625 6.359375 
L 14.40625 21.09375 
C 14.40625 29.6875 16.203125 42.8125 25.90625 42.8125 
C 27 42.8125 28.09375 42.515625 29.09375 42.109375 
C 27.90625 41.609375 26.90625 40.796875 26.90625 39.375 
C 26.90625 37.96875 28 36.546875 29.703125 36.546875 
C 31.203125 36.546875 32.40625 37.859375 32.40625 39.359375 
C 32.40625 42.6875 28.703125 44 26 44 
C 19.90625 44 15.296875 38.046875 14.40625 32.5 
L 14.296875 44 
z
" id="Computer_Modern_Roman-114"/>
      <path d="M 4.703125 42.6875 
L 4.703125 40.5 
L 5.59375 40.5 
C 8.90625 40.5 10.703125 40 10.703125 34.078125 
C 10.703125 32.78125 10.59375 31.484375 10.59375 30.15625 
L 10.59375 14.125 
C 10.59375 6.921875 11.90625 -0.5 22.796875 -0.5 
C 29 -0.5 33.90625 3.875 35.40625 9.6875 
L 35.5 0 
L 45.40625 0 
L 45.40625 2.5 
L 44.40625 2.5 
C 41.796875 2.5 39.5 2.796875 39.5 6.984375 
L 39.5 43.796875 
L 29.5 42.6875 
L 29.5 40.5 
L 30.59375 40.5 
C 34 40.5 35.40625 39.390625 35.40625 35.28125 
L 35.40625 16.828125 
C 35.40625 9.515625 31.90625 0.703125 23.296875 0.703125 
C 20.59375 0.703125 17.703125 1.59375 16.09375 3.90625 
C 14.796875 5.71875 14.703125 8.21875 14.703125 10.515625 
L 14.703125 43.796875 
z
" id="Computer_Modern_Roman-117"/>
      <path d="M 4.703125 42.90625 
L 4.703125 40.703125 
L 5.703125 40.703125 
C 8.90625 40.703125 10.59375 40 10.59375 35.546875 
L 10.59375 5.640625 
C 10.59375 2.40625 8.203125 2.203125 4.703125 2.203125 
L 4.703125 0 
L 20.59375 0 
L 20.59375 2.203125 
L 19.203125 2.203125 
C 16.90625 2.203125 14.703125 2.5 14.703125 5.640625 
L 14.703125 19.671875 
C 14.703125 21.5 14.59375 23.203125 14.59375 25.046875 
C 14.59375 32.296875 17 42.8125 26.796875 42.8125 
C 33 42.8125 35.5 37.96875 35.5 30.484375 
L 35.5 5.640625 
C 35.5 2.40625 33.09375 2.203125 29.59375 2.203125 
L 29.59375 0 
L 45.5 0 
L 45.5 2.203125 
L 44.09375 2.203125 
C 41.796875 2.203125 39.59375 2.5 39.59375 5.640625 
L 39.59375 19.671875 
C 39.59375 21.5 39.5 23.203125 39.5 25.046875 
C 39.5 32.296875 41.90625 42.8125 51.703125 42.8125 
C 57.90625 42.8125 60.40625 37.96875 60.40625 30.484375 
L 60.40625 5.640625 
C 60.40625 2.40625 58 2.203125 54.5 2.203125 
L 54.5 0 
L 70.40625 0 
L 70.40625 2.203125 
L 68.796875 2.203125 
C 66.5 2.203125 64.5 2.5 64.5 6.03125 
L 64.5 29.0625 
C 64.5 35.8125 63.40625 44 52.40625 44 
C 46.203125 44 40.796875 39.46875 39.59375 33.53125 
L 39.5 33.53125 
C 38.59375 38.859375 36.296875 44 27.5 44 
C 21.203125 44 15.59375 38.96875 14.59375 33.125 
L 14.5 44 
z
" id="Computer_Modern_Roman-109"/>
      <path d="M 2.59375 2.203125 
L 2.59375 0 
L 15.59375 0 
L 15.59375 2.203125 
C 13.40625 2.203125 11.703125 4.03125 11.703125 6.28125 
L 11.703125 6.78125 
C 11.90625 8.453125 12.703125 10.0625 13.296875 11.65625 
C 14.796875 15.546875 16 19.40625 17.5 23.203125 
C 17.796875 24 17.796875 25 19.09375 25 
L 45.40625 25 
C 45.703125 23.3125 46.5 21.609375 47.09375 20.03125 
L 50.703125 10.171875 
C 51.296875 8.46875 52.5 6.1875 52.5 4.6875 
C 52.5 2.203125 49.5 2.203125 47.90625 2.203125 
L 47.90625 0 
L 64.5 0 
L 64.5 2.203125 
L 62.90625 2.203125 
C 59 2.203125 58.203125 3.8125 57.09375 6.609375 
C 50.5 26.609375 42.59375 46.3125 35.703125 66.203125 
C 35.296875 67.40625 34.703125 70 33.5 70 
C 32 70 28.90625 59.109375 27 53.90625 
C 22.203125 40.703125 17.5 27.40625 12.703125 14.203125 
L 11.203125 10 
C 9.796875 6.40625 8.09375 2.203125 2.59375 2.203125 
z
M 18.90625 27.203125 
L 31.703125 62.78125 
L 44.5 27.203125 
z
" id="Computer_Modern_Roman-65"/>
     </defs>
     <g transform="translate(7.649826 208.335282)rotate(-90)scale(0.12 -0.12)">
      <use transform="scale(0.356961)" xlink:href="#Computer_Modern_Roman-83"/>
      <use transform="translate(17.749616 0)scale(0.356961)" xlink:href="#Computer_Modern_Roman-116"/>
      <use transform="translate(30.167694 0)scale(0.356961)" xlink:href="#Computer_Modern_Roman-114"/>
      <use transform="translate(42.585771 0)scale(0.356961)" xlink:href="#Computer_Modern_Roman-97"/>
      <use transform="translate(58.558223 0)scale(0.356961)" xlink:href="#Computer_Modern_Roman-117"/>
      <use transform="translate(76.30784 0)scale(0.356961)" xlink:href="#Computer_Modern_Roman-109"/>
      <use transform="translate(102.054764 0)scale(0.356961)" xlink:href="#Computer_Modern_Roman-117"/>
      <use transform="translate(119.80438 0)scale(0.356961)" xlink:href="#Computer_Modern_Roman-114"/>
      <use transform="translate(142.863356 0)scale(0.356961)" xlink:href="#Computer_Modern_Roman-91"/>
      <use transform="translate(151.72709 0)scale(0.356961)" xlink:href="#Computer_Modern_Roman-65"/>
      <use transform="translate(175.676221 0)scale(0.356961)" xlink:href="#Computer_Modern_Roman-93"/>
     </g>
    </g>
   </g>
   <g id="patch_3">
    <path d="M 57.6 307.584 
L 57.6 41.472 
" style="fill:none;stroke:#000000;stroke-linecap:square;stroke-linejoin:miter;stroke-width:0.8;"/>
   </g>
   <g id="patch_4">
    <path d="M 414.72 307.584 
L 414.72 41.472 
" style="fill:none;stroke:#000000;stroke-linecap:square;stroke-linejoin:miter;stroke-width:0.8;"/>
   </g>
   <g id="patch_5">
    <path d="M 57.6 307.584 
L 414.72 307.584 
" style="fill:none;stroke:#000000;stroke-linecap:square;stroke-linejoin:miter;stroke-width:0.8;"/>
   </g>
   <g id="patch_6">
    <path d="M 57.6 41.472 
L 414.72 41.472 
" style="fill:none;stroke:#000000;stroke-linecap:square;stroke-linejoin:miter;stroke-width:0.8;"/>
   </g>
   <g id="legend_1">
    <g id="patch_7">
     <path d="M 307.947114 301.584 
L 406.32 301.584 
Q 408.72 301.584 408.72 299.184 
L 408.72 283.659952 
Q 408.72 281.259952 406.32 281.259952 
L 307.947114 281.259952 
Q 305.547114 281.259952 305.547114 283.659952 
L 305.547114 299.184 
Q 305.547114 301.584 307.947114 301.584 
z
" style="fill:#ffffff;opacity:0.8;stroke:#cccccc;stroke-linejoin:miter;"/>
    </g>
    <g id="PathCollection_2">
     <g>
      <use style="fill:#800080;stroke:#800080;stroke-width:1.5;" x="322.347114" xlink:href="#m1cb4b4874f" y="291.309952"/>
     </g>
    </g>
    <g id="text_16">
     <!-- BZX-55C13 -->
     <defs>
      <path d="M 7.40625 68 
L 7.40625 66.109375 
L 9.09375 66.109375 
C 11.703125 66.109375 13.796875 65.8125 13.796875 61.90625 
L 13.796875 6.5 
C 13.796875 2.59375 12.09375 2.296875 7.40625 2.296875 
L 7.40625 0 
L 32.296875 0 
C 34 0 35.59375 0 37.296875 0 
C 46.796875 0 58.40625 5.765625 58.40625 18.015625 
C 58.40625 27.671875 49.5 35.546875 39.90625 35.546875 
C 46.5 37.359375 55.90625 40.5 55.90625 51.515625 
C 55.90625 61.328125 46.703125 68 37.296875 68 
z
M 18.5 34.765625 
L 35.703125 34.765625 
C 38.59375 34.765625 41.5 34.765625 44.09375 33.265625 
C 49.5 30.390625 52.796875 24.515625 52.796875 18.53125 
C 52.796875 8.859375 44.59375 2.296875 34.796875 2.296875 
C 33.296875 2.296875 31.703125 2.296875 30.203125 2.296875 
L 21.203125 2.296875 
C 19.296875 2.296875 18.5 3.390625 18.5 5.1875 
z
M 18.5 36.046875 
L 18.5 62.8125 
C 18.5 64.609375 18.90625 66.109375 21.203125 66.109375 
L 29.796875 66.109375 
C 31.296875 66.109375 32.796875 66.109375 34.40625 66.109375 
C 41.59375 66.109375 50.5 61.90625 50.5 51.421875 
C 50.5 43.734375 44 37.546875 36.59375 36.34375 
C 35 36.046875 33.296875 36.046875 31.703125 36.046875 
z
" id="Computer_Modern_Roman-66"/>
      <path d="M 7.09375 68.203125 
L 6.796875 61.703125 
L 6.796875 50.71875 
L 6.203125 46.53125 
L 7.5 46.53125 
C 7.5 51.71875 8.5 57.609375 12.203125 61.296875 
C 16.796875 66 23.59375 66 29.703125 66 
L 44 66 
L 5 1.40625 
L 5.203125 0.203125 
L 6 0 
L 48.90625 0 
L 50.203125 25.5625 
L 48.90625 25.5625 
C 48.90625 21.078125 48.5 14.171875 45.703125 9.484375 
C 41.90625 3 33.796875 2.3125 26.90625 2.3125 
L 10.703125 2.3125 
L 49.703125 66.796875 
L 49.5 68 
L 48.796875 68.203125 
z
" id="Computer_Modern_Roman-90"/>
      <path d="M 2.796875 68.203125 
L 2.796875 66 
L 4.5 66 
C 7.90625 66 9.703125 64.796875 11.5 62.09375 
L 14.203125 58.3125 
C 19.203125 51.234375 24.40625 44.125 29.203125 36.9375 
L 30.40625 35.34375 
C 30.5 35.046875 30.796875 34.75 30.796875 34.4375 
C 30.796875 33.765625 29.703125 32.65625 29.203125 31.859375 
L 24.703125 25.453125 
C 21.703125 21.171875 18.59375 16.78125 15.59375 12.484375 
C 11.90625 7.296875 8.59375 2.203125 1.5 2.203125 
L 1.5 0 
L 15.90625 0 
L 15.90625 2.203125 
C 14.40625 2.609375 13.40625 3.609375 13.40625 5.203125 
C 13.40625 7.109375 14.90625 9.09375 16 10.484375 
C 19.5 15.484375 23 20.578125 26.59375 25.578125 
L 29.90625 30.359375 
C 30.59375 31.265625 31.296875 32.15625 31.796875 33.15625 
L 32 33.15625 
C 32.5 32.15625 33.203125 31.265625 33.90625 30.359375 
L 37.296875 25.46875 
C 40.90625 20.375 44.40625 15.390625 48 10.296875 
L 50.296875 7 
C 50.796875 6.3125 51.59375 5.5 51.59375 4.609375 
C 51.59375 3.203125 50 2.203125 48.703125 2.203125 
L 48.703125 0 
L 65.59375 0 
L 65.59375 2.203125 
L 64.703125 2.203125 
C 61 2.203125 58.90625 3 56.703125 6.3125 
L 53.5 10.796875 
C 47.90625 18.78125 42.296875 26.5625 36.796875 34.546875 
L 35.5 36.34375 
C 35.296875 36.640625 35 36.9375 35 37.34375 
C 35 37.9375 36 39.046875 36.5 39.640625 
L 40.59375 45.53125 
C 43 49.03125 45.5 52.40625 47.90625 55.90625 
C 51.59375 61.515625 55.296875 66 61.796875 66 
L 61.796875 68.203125 
L 47.40625 68.203125 
L 47.40625 66 
C 48.90625 65.59375 50 64.703125 50 63 
C 50 61.5 49 60.015625 48.203125 58.8125 
C 44 53.015625 40 47.125 35.90625 41.34375 
C 35.203125 40.4375 34.5 39.546875 34 38.546875 
L 33.90625 38.546875 
C 33.40625 39.4375 32.796875 40.25 32.203125 41.046875 
L 29.296875 45.234375 
C 26.09375 49.734375 22.90625 54.21875 19.796875 58.71875 
L 17.796875 61.5 
C 17.40625 62 16.703125 62.890625 16.703125 63.59375 
C 16.703125 65 18.296875 66 19.59375 66 
L 19.59375 68.203125 
z
" id="Computer_Modern_Roman-88"/>
      <path d="M 1 23.390625 
L 1 20 
L 24.796875 20 
L 24.796875 23.390625 
z
" id="Computer_Modern_Roman-45"/>
      <path d="M 9.796875 65.703125 
C 9.703125 65.203125 9.703125 64.59375 9.703125 64.09375 
L 9.703125 34.265625 
C 9.703125 33.671875 9.796875 33.171875 10.40625 33.171875 
C 11.203125 33.171875 11.90625 34.4375 12.296875 34.90625 
C 15 37.984375 19.296875 39.71875 23.59375 39.71875 
L 24.296875 39.71875 
C 32.5 39.71875 35 29.390625 35.296875 22.359375 
L 35.296875 20.359375 
C 35.296875 12.53125 32.5 1.09375 21.09375 1.09375 
C 14.09375 1.09375 6.90625 7 6.09375 14.203125 
C 6.59375 14 7.09375 13.90625 7.59375 13.90625 
C 9.296875 13.90625 10.703125 15.203125 10.703125 16.90625 
C 10.703125 18.5 9.5 20 7.59375 20 
C 5.5 20 4.5 18.390625 4.5 16.171875 
C 4.703125 6.984375 12.203125 -1 21.40625 -1 
C 32.90625 -1 40.203125 9.90625 40.203125 20.59375 
C 40.203125 30.09375 34.5 41.09375 23.5 41.09375 
C 18.703125 41.09375 14.203125 38.9375 11.09375 35.359375 
L 11.09375 60.09375 
C 14.09375 58.703125 17.40625 58 20.796875 58 
C 26.296875 58 31.5 59.90625 35.703125 63.59375 
C 36 63.796875 36.796875 64.5 36.796875 65.09375 
C 36.796875 65.296875 36.59375 65.59375 36.40625 65.59375 
C 36.09375 65.59375 35.203125 65.09375 34.796875 64.90625 
C 31.203125 63.296875 27.296875 62.5 23.296875 62.5 
C 19.5 62.5 15.703125 63.296875 12.203125 64.703125 
C 11.40625 65 10.59375 65.5 9.796875 65.703125 
z
" id="Computer_Modern_Roman-53"/>
      <path d="M 54.703125 58.203125 
C 49.796875 64 45.296875 69.203125 35.703125 69.203125 
C 17.5 69.203125 5 51.578125 5 34.140625 
C 5 16.421875 17.703125 -1 35.703125 -1 
C 49.09375 -1 59.703125 10.65625 59.703125 23.796875 
L 59.703125 24.1875 
C 59.59375 24.484375 59.40625 24.59375 59.09375 24.59375 
C 58.09375 24.59375 58 18.921875 57.09375 16.421875 
C 54.296875 7.875 46.796875 1.203125 37.09375 1.203125 
C 27.796875 1.203125 19.40625 6.96875 15 14.734375 
C 11.59375 20.609375 10.59375 27.78125 10.59375 34.4375 
C 10.59375 50.1875 19.40625 67 37.09375 67 
C 50.203125 67 57.09375 54.0625 58.203125 43.515625 
C 58.296875 42.90625 58.5 42.3125 59 42.3125 
C 59.59375 42.3125 59.703125 42.71875 59.703125 43.203125 
L 59.703125 68.296875 
C 59.703125 68.640625 59.703125 69.078125 59.40625 69.203125 
L 59.296875 69.203125 
C 58.5 69.203125 55.09375 59.796875 54.703125 58.203125 
z
" id="Computer_Modern_Roman-67"/>
      <path d="M 9.5 56.796875 
C 10.90625 57 12.40625 57 13.796875 57.203125 
C 16.5 57.703125 18.90625 58.609375 21.203125 60.015625 
L 21.203125 6.5 
C 21.203125 2.703125 17.796875 2.109375 14.296875 2.109375 
C 12.796875 2.109375 11.296875 2.109375 10 2.109375 
L 10 0 
L 36.703125 0 
L 36.703125 2.109375 
C 35.296875 2.109375 33.796875 2.109375 32.296875 2.109375 
C 28.703125 2.109375 25.5 2.703125 25.5 6.5 
L 25.5 64.6875 
C 25.5 64.984375 25.40625 65.5 25.09375 65.5 
C 24.296875 65.5 22.59375 63.375 21.5 62.5625 
C 18.5 60.40625 14.59375 59.09375 11.09375 59.09375 
L 10.5 59.09375 
C 9.90625 59.09375 9.5 59 9.5 58.296875 
z
" id="Computer_Modern_Roman-49"/>
      <path d="M 7.90625 54.703125 
C 10.296875 60.40625 15.90625 63.90625 22.40625 63.90625 
C 28.59375 63.90625 33.203125 59.34375 33.203125 52.546875 
C 33.203125 46.265625 30.203125 38.953125 24.203125 36.53125 
C 22.90625 36.03125 21.59375 35.90625 20.203125 35.71875 
L 16 35.40625 
C 15.59375 35.3125 15 35.21875 15 34.703125 
L 15 34.5 
C 15 34.203125 15.40625 34.203125 15.703125 34.203125 
L 21 34.203125 
C 31.40625 34.203125 35.40625 26.25 35.40625 17.984375 
L 35.40625 16.609375 
C 34.90625 10.0625 32 1.1875 22.40625 1.1875 
C 15.296875 1.1875 6.703125 6.046875 5.5 13.296875 
C 6 13.109375 6.5 13 7 13 
C 9 13 10.40625 14.40625 10.40625 16.296875 
C 10.40625 18.109375 9 19.609375 7.09375 19.609375 
C 5.203125 19.609375 3.703125 18.40625 3.703125 16.09375 
C 3.703125 5.921875 13.5 -1 22.703125 -1 
C 32.90625 -1 41 7.796875 41 17.796875 
C 41 27 33.40625 34.796875 23.5 34.796875 
C 31.40625 37.140625 38.5 42.625 38.5 52.6875 
C 38.5 61.03125 30.09375 66 22.90625 66 
C 15.296875 66 6.203125 61 6.203125 52.40625 
C 6.203125 50.203125 7.296875 48.703125 9.296875 48.703125 
C 11.296875 48.703125 12.5 50.203125 12.5 51.90625 
C 12.5 53.703125 11 55 9.40625 55 
C 8.90625 55 8.40625 54.90625 7.90625 54.703125 
z
" id="Computer_Modern_Roman-51"/>
     </defs>
     <g transform="translate(343.947114 294.459952)scale(0.12 -0.12)">
      <use transform="scale(0.356961)" xlink:href="#Computer_Modern_Roman-66"/>
      <use transform="translate(22.626546 0)scale(0.356961)" xlink:href="#Computer_Modern_Roman-90"/>
      <use transform="translate(42.153342 0)scale(0.356961)" xlink:href="#Computer_Modern_Roman-88"/>
      <use transform="translate(66.102473 0)scale(0.356961)" xlink:href="#Computer_Modern_Roman-45"/>
      <use transform="translate(76.743371 0)scale(0.356961)" xlink:href="#Computer_Modern_Roman-53"/>
      <use transform="translate(92.715823 0)scale(0.356961)" xlink:href="#Computer_Modern_Roman-53"/>
      <use transform="translate(108.688275 0)scale(0.356961)" xlink:href="#Computer_Modern_Roman-67"/>
      <use transform="translate(131.769445 0)scale(0.356961)" xlink:href="#Computer_Modern_Roman-49"/>
      <use transform="translate(147.741897 0)scale(0.356961)" xlink:href="#Computer_Modern_Roman-51"/>
     </g>
    </g>
   </g>
  </g>
 </g>
 <defs>
  <clipPath id="p3bec6d97fb">
   <rect height="266.112" width="357.12" x="57.6" y="41.472"/>
  </clipPath>
 </defs>
</svg>
